    721    11    11     datakind begining-row linenumbers
----------------------------------------------------------------
MSCD Version 1.00 Yufeng Chen and Michel A Van Hove
Lawrence Berkeley National Laboratory (LBNL), Berkeley, CA 94720
Copyright (c) Van Hove Group 1997. All rights reserved
----------------------------------------------------------------

        Au 4f           Gold radial matrix data

            k     R(li+1)    phase(li+1)     R(li-1)    phase(li-1)
       3.0290     .43700E-01      5.5260     .87300E-01      1.8550
       4.4341     .12000           .0370     .61700E-01      1.6970
       5.4906     .17000           .5580     .47100E-01      1.5260
       6.5768     .18700          1.0210     .35300E-01      1.3370
       7.5074     .17900          1.3410     .27800E-01      1.1740
       9.0871     .14300          1.7440     .18800E-01       .9070
      11.6191     .86700E-01      2.1570     .10400E-01       .5140
      13.6906     .55300E-01      2.3630     .66000E-02       .2270
      15.4875     .37500E-01      2.4820     .46000E-02       .0000
      17.5026     .24600E-01      2.5710     .31000E-02      6.0510
      19.1682     .17800E-01      2.6200     .23000E-02      5.8760
